virtualbox-kernel-4.2.16/
virtualbox-kernel-4.2.16/vboxnetadp/
virtualbox-kernel-4.2.16/vboxnetadp/math/
virtualbox-kernel-4.2.16/vboxnetadp/math/gcc/
virtualbox-kernel-4.2.16/vboxnetadp/math/gcc/qdivrem.c
virtualbox-kernel-4.2.16/vboxnetadp/math/gcc/quad.h
virtualbox-kernel-4.2.16/vboxnetadp/math/gcc/udivdi3.c
virtualbox-kernel-4.2.16/vboxnetadp/math/gcc/divdi3.c
virtualbox-kernel-4.2.16/vboxnetadp/math/gcc/umoddi3.c
virtualbox-kernel-4.2.16/vboxnetadp/math/gcc/moddi3.c
virtualbox-kernel-4.2.16/vboxnetadp/VBoxNetAdpInternal.h
virtualbox-kernel-4.2.16/vboxnetadp/product-generated.h
virtualbox-kernel-4.2.16/vboxnetadp/version-generated.h
virtualbox-kernel-4.2.16/vboxnetadp/VBoxNetAdp.c
virtualbox-kernel-4.2.16/vboxnetadp/do_Module.symvers
virtualbox-kernel-4.2.16/vboxnetadp/common/
virtualbox-kernel-4.2.16/vboxnetadp/common/string/
virtualbox-kernel-4.2.16/vboxnetadp/common/string/strtonum.c
virtualbox-kernel-4.2.16/vboxnetadp/common/string/strformat.c
virtualbox-kernel-4.2.16/vboxnetadp/common/string/strformattype.c
virtualbox-kernel-4.2.16/vboxnetadp/common/string/strformatrt.c
virtualbox-kernel-4.2.16/vboxnetadp/common/string/strprintf.c
virtualbox-kernel-4.2.16/vboxnetadp/r0drv/
virtualbox-kernel-4.2.16/vboxnetadp/r0drv/linux/
virtualbox-kernel-4.2.16/vboxnetadp/r0drv/linux/the-linux-kernel.h
virtualbox-kernel-4.2.16/vboxnetadp/linux/
virtualbox-kernel-4.2.16/vboxnetadp/linux/VBoxNetAdp-linux.c
virtualbox-kernel-4.2.16/vboxnetadp/Makefile
virtualbox-kernel-4.2.16/vboxnetadp/include/
virtualbox-kernel-4.2.16/vboxnetadp/include/VBox/
virtualbox-kernel-4.2.16/vboxnetadp/include/VBox/cdefs.h
virtualbox-kernel-4.2.16/vboxnetadp/include/VBox/SUPDrvMangling.h
virtualbox-kernel-4.2.16/vboxnetadp/include/VBox/sup.h
virtualbox-kernel-4.2.16/vboxnetadp/include/VBox/intnet.h
virtualbox-kernel-4.2.16/vboxnetadp/include/VBox/err.h
virtualbox-kernel-4.2.16/vboxnetadp/include/VBox/log.h
virtualbox-kernel-4.2.16/vboxnetadp/include/VBox/vmm/
virtualbox-kernel-4.2.16/vboxnetadp/include/VBox/vmm/stam.h
virtualbox-kernel-4.2.16/vboxnetadp/include/VBox/types.h
virtualbox-kernel-4.2.16/vboxnetadp/include/iprt/
virtualbox-kernel-4.2.16/vboxnetadp/include/iprt/stdint.h
virtualbox-kernel-4.2.16/vboxnetadp/include/iprt/cdefs.h
virtualbox-kernel-4.2.16/vboxnetadp/include/iprt/avl.h
virtualbox-kernel-4.2.16/vboxnetadp/include/iprt/thread.h
virtualbox-kernel-4.2.16/vboxnetadp/include/iprt/ctype.h
virtualbox-kernel-4.2.16/vboxnetadp/include/iprt/mangling.h
virtualbox-kernel-4.2.16/vboxnetadp/include/iprt/stdarg.h
virtualbox-kernel-4.2.16/vboxnetadp/include/iprt/uuid.h
virtualbox-kernel-4.2.16/vboxnetadp/include/iprt/assert.h
virtualbox-kernel-4.2.16/vboxnetadp/include/iprt/asm-amd64-x86.h
virtualbox-kernel-4.2.16/vboxnetadp/include/iprt/time.h
virtualbox-kernel-4.2.16/vboxnetadp/include/iprt/timer.h
virtualbox-kernel-4.2.16/vboxnetadp/include/iprt/nocrt/
virtualbox-kernel-4.2.16/vboxnetadp/include/iprt/nocrt/limits.h
virtualbox-kernel-4.2.16/vboxnetadp/include/iprt/power.h
virtualbox-kernel-4.2.16/vboxnetadp/include/iprt/net.h
virtualbox-kernel-4.2.16/vboxnetadp/include/iprt/process.h
virtualbox-kernel-4.2.16/vboxnetadp/include/iprt/param.h
virtualbox-kernel-4.2.16/vboxnetadp/include/iprt/spinlock.h
virtualbox-kernel-4.2.16/vboxnetadp/include/iprt/heap.h
virtualbox-kernel-4.2.16/vboxnetadp/include/iprt/mem.h
virtualbox-kernel-4.2.16/vboxnetadp/include/iprt/mp.h
virtualbox-kernel-4.2.16/vboxnetadp/include/iprt/err.h
virtualbox-kernel-4.2.16/vboxnetadp/include/iprt/initterm.h
virtualbox-kernel-4.2.16/vboxnetadp/include/iprt/alloca.h
virtualbox-kernel-4.2.16/vboxnetadp/include/iprt/asm-math.h
virtualbox-kernel-4.2.16/vboxnetadp/include/iprt/cpuset.h
virtualbox-kernel-4.2.16/vboxnetadp/include/iprt/memobj.h
virtualbox-kernel-4.2.16/vboxnetadp/include/iprt/asm.h
virtualbox-kernel-4.2.16/vboxnetadp/include/iprt/semaphore.h
virtualbox-kernel-4.2.16/vboxnetadp/include/iprt/string.h
virtualbox-kernel-4.2.16/vboxnetadp/include/iprt/log.h
virtualbox-kernel-4.2.16/vboxnetadp/include/iprt/uni.h
virtualbox-kernel-4.2.16/vboxnetadp/include/iprt/types.h
virtualbox-kernel-4.2.16/vboxnetadp/include/iprt/x86.h
virtualbox-kernel-4.2.16/vboxnetadp/include/iprt/alloc.h
virtualbox-kernel-4.2.16/vboxnetadp/include/internal/
virtualbox-kernel-4.2.16/vboxnetadp/include/internal/iprt.h
virtualbox-kernel-4.2.16/vboxpci/
virtualbox-kernel-4.2.16/vboxpci/math/
virtualbox-kernel-4.2.16/vboxpci/math/gcc/
virtualbox-kernel-4.2.16/vboxpci/math/gcc/qdivrem.c
virtualbox-kernel-4.2.16/vboxpci/math/gcc/quad.h
virtualbox-kernel-4.2.16/vboxpci/math/gcc/udivdi3.c
virtualbox-kernel-4.2.16/vboxpci/math/gcc/divdi3.c
virtualbox-kernel-4.2.16/vboxpci/math/gcc/umoddi3.c
virtualbox-kernel-4.2.16/vboxpci/math/gcc/moddi3.c
virtualbox-kernel-4.2.16/vboxpci/SUPR0IdcClientInternal.h
virtualbox-kernel-4.2.16/vboxpci/product-generated.h
virtualbox-kernel-4.2.16/vboxpci/version-generated.h
virtualbox-kernel-4.2.16/vboxpci/SUPDrvIDC.h
virtualbox-kernel-4.2.16/vboxpci/SUPR0IdcClient.c
virtualbox-kernel-4.2.16/vboxpci/do_Module.symvers
virtualbox-kernel-4.2.16/vboxpci/SUPR0IdcClientComponent.c
virtualbox-kernel-4.2.16/vboxpci/VBoxPci.c
virtualbox-kernel-4.2.16/vboxpci/r0drv/
virtualbox-kernel-4.2.16/vboxpci/r0drv/linux/
virtualbox-kernel-4.2.16/vboxpci/r0drv/linux/the-linux-kernel.h
virtualbox-kernel-4.2.16/vboxpci/linux/
virtualbox-kernel-4.2.16/vboxpci/linux/VBoxPci-linux.c
virtualbox-kernel-4.2.16/vboxpci/linux/SUPR0IdcClient-linux.c
virtualbox-kernel-4.2.16/vboxpci/Makefile
virtualbox-kernel-4.2.16/vboxpci/VBoxPciInternal.h
virtualbox-kernel-4.2.16/vboxpci/include/
virtualbox-kernel-4.2.16/vboxpci/include/VBox/
virtualbox-kernel-4.2.16/vboxpci/include/VBox/cdefs.h
virtualbox-kernel-4.2.16/vboxpci/include/VBox/SUPDrvMangling.h
virtualbox-kernel-4.2.16/vboxpci/include/VBox/sup.h
virtualbox-kernel-4.2.16/vboxpci/include/VBox/rawpci.h
virtualbox-kernel-4.2.16/vboxpci/include/VBox/param.h
virtualbox-kernel-4.2.16/vboxpci/include/VBox/err.h
virtualbox-kernel-4.2.16/vboxpci/include/VBox/log.h
virtualbox-kernel-4.2.16/vboxpci/include/VBox/vmm/
virtualbox-kernel-4.2.16/vboxpci/include/VBox/vmm/stam.h
virtualbox-kernel-4.2.16/vboxpci/include/VBox/types.h
virtualbox-kernel-4.2.16/vboxpci/include/VBox/version.h
virtualbox-kernel-4.2.16/vboxpci/include/iprt/
virtualbox-kernel-4.2.16/vboxpci/include/iprt/stdint.h
virtualbox-kernel-4.2.16/vboxpci/include/iprt/cdefs.h
virtualbox-kernel-4.2.16/vboxpci/include/iprt/avl.h
virtualbox-kernel-4.2.16/vboxpci/include/iprt/thread.h
virtualbox-kernel-4.2.16/vboxpci/include/iprt/ctype.h
virtualbox-kernel-4.2.16/vboxpci/include/iprt/mangling.h
virtualbox-kernel-4.2.16/vboxpci/include/iprt/stdarg.h
virtualbox-kernel-4.2.16/vboxpci/include/iprt/uuid.h
virtualbox-kernel-4.2.16/vboxpci/include/iprt/assert.h
virtualbox-kernel-4.2.16/vboxpci/include/iprt/asm-amd64-x86.h
virtualbox-kernel-4.2.16/vboxpci/include/iprt/time.h
virtualbox-kernel-4.2.16/vboxpci/include/iprt/timer.h
virtualbox-kernel-4.2.16/vboxpci/include/iprt/nocrt/
virtualbox-kernel-4.2.16/vboxpci/include/iprt/nocrt/limits.h
virtualbox-kernel-4.2.16/vboxpci/include/iprt/power.h
virtualbox-kernel-4.2.16/vboxpci/include/iprt/process.h
virtualbox-kernel-4.2.16/vboxpci/include/iprt/param.h
virtualbox-kernel-4.2.16/vboxpci/include/iprt/spinlock.h
virtualbox-kernel-4.2.16/vboxpci/include/iprt/heap.h
virtualbox-kernel-4.2.16/vboxpci/include/iprt/mem.h
virtualbox-kernel-4.2.16/vboxpci/include/iprt/mp.h
virtualbox-kernel-4.2.16/vboxpci/include/iprt/err.h
virtualbox-kernel-4.2.16/vboxpci/include/iprt/initterm.h
virtualbox-kernel-4.2.16/vboxpci/include/iprt/alloca.h
virtualbox-kernel-4.2.16/vboxpci/include/iprt/asm-math.h
virtualbox-kernel-4.2.16/vboxpci/include/iprt/cpuset.h
virtualbox-kernel-4.2.16/vboxpci/include/iprt/memobj.h
virtualbox-kernel-4.2.16/vboxpci/include/iprt/asm.h
virtualbox-kernel-4.2.16/vboxpci/include/iprt/semaphore.h
virtualbox-kernel-4.2.16/vboxpci/include/iprt/string.h
virtualbox-kernel-4.2.16/vboxpci/include/iprt/log.h
virtualbox-kernel-4.2.16/vboxpci/include/iprt/uni.h
virtualbox-kernel-4.2.16/vboxpci/include/iprt/types.h
virtualbox-kernel-4.2.16/vboxpci/include/iprt/alloc.h
virtualbox-kernel-4.2.16/vboxdrv/
virtualbox-kernel-4.2.16/vboxdrv/generic/
virtualbox-kernel-4.2.16/vboxdrv/generic/RTLogWriteUser-generic.c
virtualbox-kernel-4.2.16/vboxdrv/generic/RTSemEventMultiWaitNoResume-2-ex-generic.c
virtualbox-kernel-4.2.16/vboxdrv/generic/RTTimerCreate-generic.c
virtualbox-kernel-4.2.16/vboxdrv/generic/RTSemEventWaitNoResume-2-ex-generic.c
virtualbox-kernel-4.2.16/vboxdrv/generic/RTSemEventWait-2-ex-generic.c
virtualbox-kernel-4.2.16/vboxdrv/generic/RTMpGetArraySize-generic.c
virtualbox-kernel-4.2.16/vboxdrv/generic/RTSemEventMultiWait-2-ex-generic.c
virtualbox-kernel-4.2.16/vboxdrv/generic/RTAssertShouldPanic-generic.c
virtualbox-kernel-4.2.16/vboxdrv/generic/mppresent-generic.c
virtualbox-kernel-4.2.16/vboxdrv/generic/errvars-generic.c
virtualbox-kernel-4.2.16/vboxdrv/generic/uuid-generic.c
virtualbox-kernel-4.2.16/vboxdrv/generic/RTLogWriteStdOut-stub-generic.c
virtualbox-kernel-4.2.16/vboxdrv/generic/RTLogWriteStdErr-stub-generic.c
virtualbox-kernel-4.2.16/vboxdrv/math/
virtualbox-kernel-4.2.16/vboxdrv/math/gcc/
virtualbox-kernel-4.2.16/vboxdrv/math/gcc/qdivrem.c
virtualbox-kernel-4.2.16/vboxdrv/math/gcc/quad.h
virtualbox-kernel-4.2.16/vboxdrv/math/gcc/udivdi3.c
virtualbox-kernel-4.2.16/vboxdrv/math/gcc/divdi3.c
virtualbox-kernel-4.2.16/vboxdrv/math/gcc/umoddi3.c
virtualbox-kernel-4.2.16/vboxdrv/math/gcc/moddi3.c
virtualbox-kernel-4.2.16/vboxdrv/SUPDrvSem.c
virtualbox-kernel-4.2.16/vboxdrv/product-generated.h
virtualbox-kernel-4.2.16/vboxdrv/SUPDrv.c
virtualbox-kernel-4.2.16/vboxdrv/version-generated.h
virtualbox-kernel-4.2.16/vboxdrv/SUPDrvIDC.h
virtualbox-kernel-4.2.16/vboxdrv/SUPDrvDTrace.c
virtualbox-kernel-4.2.16/vboxdrv/do_Module.symvers
virtualbox-kernel-4.2.16/vboxdrv/VBox/
virtualbox-kernel-4.2.16/vboxdrv/VBox/log-vbox.c
virtualbox-kernel-4.2.16/vboxdrv/SUPDrvTracer.c
virtualbox-kernel-4.2.16/vboxdrv/SUPDrvIOC.h
virtualbox-kernel-4.2.16/vboxdrv/SUPDrvInternal.h
virtualbox-kernel-4.2.16/vboxdrv/common/
virtualbox-kernel-4.2.16/vboxdrv/common/table/
virtualbox-kernel-4.2.16/vboxdrv/common/table/avl_RemoveBestFit.cpp.h
virtualbox-kernel-4.2.16/vboxdrv/common/table/avl_Get.cpp.h
virtualbox-kernel-4.2.16/vboxdrv/common/table/avl_DoWithAll.cpp.h
virtualbox-kernel-4.2.16/vboxdrv/common/table/avl_GetBestFit.cpp.h
virtualbox-kernel-4.2.16/vboxdrv/common/table/avl_Destroy.cpp.h
virtualbox-kernel-4.2.16/vboxdrv/common/table/avlpv.c
virtualbox-kernel-4.2.16/vboxdrv/common/table/avl_Base.cpp.h
virtualbox-kernel-4.2.16/vboxdrv/common/alloc/
virtualbox-kernel-4.2.16/vboxdrv/common/alloc/alloc.c
virtualbox-kernel-4.2.16/vboxdrv/common/alloc/heapsimple.c
virtualbox-kernel-4.2.16/vboxdrv/common/log/
virtualbox-kernel-4.2.16/vboxdrv/common/log/logellipsis.c
virtualbox-kernel-4.2.16/vboxdrv/common/log/log.c
virtualbox-kernel-4.2.16/vboxdrv/common/log/logcom.c
virtualbox-kernel-4.2.16/vboxdrv/common/log/logrel.c
virtualbox-kernel-4.2.16/vboxdrv/common/log/logrelellipsis.c
virtualbox-kernel-4.2.16/vboxdrv/common/log/logformat.c
virtualbox-kernel-4.2.16/vboxdrv/common/checksum/
virtualbox-kernel-4.2.16/vboxdrv/common/checksum/ipv6.c
virtualbox-kernel-4.2.16/vboxdrv/common/checksum/ipv4.c
virtualbox-kernel-4.2.16/vboxdrv/common/checksum/crc32.c
virtualbox-kernel-4.2.16/vboxdrv/common/string/
virtualbox-kernel-4.2.16/vboxdrv/common/string/strtonum.c
virtualbox-kernel-4.2.16/vboxdrv/common/string/strformat.c
virtualbox-kernel-4.2.16/vboxdrv/common/string/strformattype.c
virtualbox-kernel-4.2.16/vboxdrv/common/string/strformatrt.c
virtualbox-kernel-4.2.16/vboxdrv/common/string/strprintf.c
virtualbox-kernel-4.2.16/vboxdrv/common/string/RTStrNLen.c
virtualbox-kernel-4.2.16/vboxdrv/common/string/RTStrCopyEx.c
virtualbox-kernel-4.2.16/vboxdrv/common/string/RTStrCopy.c
virtualbox-kernel-4.2.16/vboxdrv/common/string/RTStrNCmp.c
virtualbox-kernel-4.2.16/vboxdrv/common/string/RTStrCopyP.c
virtualbox-kernel-4.2.16/vboxdrv/common/string/stringalloc.c
virtualbox-kernel-4.2.16/vboxdrv/common/err/
virtualbox-kernel-4.2.16/vboxdrv/common/err/RTErrConvertToErrno.c
virtualbox-kernel-4.2.16/vboxdrv/common/err/RTErrConvertFromErrno.c
virtualbox-kernel-4.2.16/vboxdrv/common/time/
virtualbox-kernel-4.2.16/vboxdrv/common/time/time.c
virtualbox-kernel-4.2.16/vboxdrv/common/misc/
virtualbox-kernel-4.2.16/vboxdrv/common/misc/assert.c
virtualbox-kernel-4.2.16/vboxdrv/common/misc/handletable.c
virtualbox-kernel-4.2.16/vboxdrv/common/misc/RTAssertMsg1Weak.c
virtualbox-kernel-4.2.16/vboxdrv/common/misc/RTAssertMsg2.c
virtualbox-kernel-4.2.16/vboxdrv/common/misc/RTAssertMsg2WeakV.c
virtualbox-kernel-4.2.16/vboxdrv/common/misc/handletable.h
virtualbox-kernel-4.2.16/vboxdrv/common/misc/RTAssertMsg2AddWeakV.c
virtualbox-kernel-4.2.16/vboxdrv/common/misc/thread.c
virtualbox-kernel-4.2.16/vboxdrv/common/misc/RTAssertMsg2Weak.c
virtualbox-kernel-4.2.16/vboxdrv/common/misc/RTAssertMsg2Add.c
virtualbox-kernel-4.2.16/vboxdrv/common/misc/handletablectx.c
virtualbox-kernel-4.2.16/vboxdrv/common/misc/RTAssertMsg2AddWeak.c
virtualbox-kernel-4.2.16/vboxdrv/r0drv/
virtualbox-kernel-4.2.16/vboxdrv/r0drv/generic/
virtualbox-kernel-4.2.16/vboxdrv/r0drv/generic/semspinmutex-r0drv-generic.c
virtualbox-kernel-4.2.16/vboxdrv/r0drv/alloc-r0drv.c
virtualbox-kernel-4.2.16/vboxdrv/r0drv/power-r0drv.h
virtualbox-kernel-4.2.16/vboxdrv/r0drv/alloc-r0drv.h
virtualbox-kernel-4.2.16/vboxdrv/r0drv/mp-r0drv.h
virtualbox-kernel-4.2.16/vboxdrv/r0drv/powernotification-r0drv.c
virtualbox-kernel-4.2.16/vboxdrv/r0drv/memobj-r0drv.c
virtualbox-kernel-4.2.16/vboxdrv/r0drv/linux/
virtualbox-kernel-4.2.16/vboxdrv/r0drv/linux/alloc-r0drv-linux.c
virtualbox-kernel-4.2.16/vboxdrv/r0drv/linux/timer-r0drv-linux.c
virtualbox-kernel-4.2.16/vboxdrv/r0drv/linux/mp-r0drv-linux.c
virtualbox-kernel-4.2.16/vboxdrv/r0drv/linux/thread-r0drv-linux.c
virtualbox-kernel-4.2.16/vboxdrv/r0drv/linux/semmutex-r0drv-linux.c
virtualbox-kernel-4.2.16/vboxdrv/r0drv/linux/initterm-r0drv-linux.c
virtualbox-kernel-4.2.16/vboxdrv/r0drv/linux/process-r0drv-linux.c
virtualbox-kernel-4.2.16/vboxdrv/r0drv/linux/spinlock-r0drv-linux.c
virtualbox-kernel-4.2.16/vboxdrv/r0drv/linux/mpnotification-r0drv-linux.c
virtualbox-kernel-4.2.16/vboxdrv/r0drv/linux/memobj-r0drv-linux.c
virtualbox-kernel-4.2.16/vboxdrv/r0drv/linux/semfastmutex-r0drv-linux.c
virtualbox-kernel-4.2.16/vboxdrv/r0drv/linux/the-linux-kernel.h
virtualbox-kernel-4.2.16/vboxdrv/r0drv/linux/time-r0drv-linux.c
virtualbox-kernel-4.2.16/vboxdrv/r0drv/linux/semeventmulti-r0drv-linux.c
virtualbox-kernel-4.2.16/vboxdrv/r0drv/linux/semevent-r0drv-linux.c
virtualbox-kernel-4.2.16/vboxdrv/r0drv/linux/memuserkernel-r0drv-linux.c
virtualbox-kernel-4.2.16/vboxdrv/r0drv/linux/waitqueue-r0drv-linux.h
virtualbox-kernel-4.2.16/vboxdrv/r0drv/linux/thread2-r0drv-linux.c
virtualbox-kernel-4.2.16/vboxdrv/r0drv/linux/assert-r0drv-linux.c
virtualbox-kernel-4.2.16/vboxdrv/r0drv/linux/string.h
virtualbox-kernel-4.2.16/vboxdrv/r0drv/linux/RTLogWriteDebugger-r0drv-linux.c
virtualbox-kernel-4.2.16/vboxdrv/r0drv/mpnotification-r0drv.c
virtualbox-kernel-4.2.16/vboxdrv/r0drv/initterm-r0drv.c
virtualbox-kernel-4.2.16/vboxdrv/linux/
virtualbox-kernel-4.2.16/vboxdrv/linux/SUPDrv-linux.c
virtualbox-kernel-4.2.16/vboxdrv/Makefile
virtualbox-kernel-4.2.16/vboxdrv/include/
virtualbox-kernel-4.2.16/vboxdrv/include/VBox/
virtualbox-kernel-4.2.16/vboxdrv/include/VBox/cdefs.h
virtualbox-kernel-4.2.16/vboxdrv/include/VBox/SUPDrvMangling.h
virtualbox-kernel-4.2.16/vboxdrv/include/VBox/sup.h
virtualbox-kernel-4.2.16/vboxdrv/include/VBox/VBoxTpG.h
virtualbox-kernel-4.2.16/vboxdrv/include/VBox/param.h
virtualbox-kernel-4.2.16/vboxdrv/include/VBox/err.h
virtualbox-kernel-4.2.16/vboxdrv/include/VBox/log.h
virtualbox-kernel-4.2.16/vboxdrv/include/VBox/vmm/
virtualbox-kernel-4.2.16/vboxdrv/include/VBox/vmm/hwacc_vmx.h
virtualbox-kernel-4.2.16/vboxdrv/include/VBox/vmm/hwacc_svm.h
virtualbox-kernel-4.2.16/vboxdrv/include/VBox/types.h
virtualbox-kernel-4.2.16/vboxdrv/include/iprt/
virtualbox-kernel-4.2.16/vboxdrv/include/iprt/stdint.h
virtualbox-kernel-4.2.16/vboxdrv/include/iprt/cdefs.h
virtualbox-kernel-4.2.16/vboxdrv/include/iprt/avl.h
virtualbox-kernel-4.2.16/vboxdrv/include/iprt/thread.h
virtualbox-kernel-4.2.16/vboxdrv/include/iprt/ctype.h
virtualbox-kernel-4.2.16/vboxdrv/include/iprt/mangling.h
virtualbox-kernel-4.2.16/vboxdrv/include/iprt/stdarg.h
virtualbox-kernel-4.2.16/vboxdrv/include/iprt/uuid.h
virtualbox-kernel-4.2.16/vboxdrv/include/iprt/assert.h
virtualbox-kernel-4.2.16/vboxdrv/include/iprt/asm-amd64-x86.h
virtualbox-kernel-4.2.16/vboxdrv/include/iprt/time.h
virtualbox-kernel-4.2.16/vboxdrv/include/iprt/list.h
virtualbox-kernel-4.2.16/vboxdrv/include/iprt/path.h
virtualbox-kernel-4.2.16/vboxdrv/include/iprt/timer.h
virtualbox-kernel-4.2.16/vboxdrv/include/iprt/nocrt/
virtualbox-kernel-4.2.16/vboxdrv/include/iprt/nocrt/limits.h
virtualbox-kernel-4.2.16/vboxdrv/include/iprt/power.h
virtualbox-kernel-4.2.16/vboxdrv/include/iprt/net.h
virtualbox-kernel-4.2.16/vboxdrv/include/iprt/process.h
virtualbox-kernel-4.2.16/vboxdrv/include/iprt/errno.h
virtualbox-kernel-4.2.16/vboxdrv/include/iprt/param.h
virtualbox-kernel-4.2.16/vboxdrv/include/iprt/spinlock.h
virtualbox-kernel-4.2.16/vboxdrv/include/iprt/heap.h
virtualbox-kernel-4.2.16/vboxdrv/include/iprt/mem.h
virtualbox-kernel-4.2.16/vboxdrv/include/iprt/mp.h
virtualbox-kernel-4.2.16/vboxdrv/include/iprt/handletable.h
virtualbox-kernel-4.2.16/vboxdrv/include/iprt/err.h
virtualbox-kernel-4.2.16/vboxdrv/include/iprt/initterm.h
virtualbox-kernel-4.2.16/vboxdrv/include/iprt/lockvalidator.h
virtualbox-kernel-4.2.16/vboxdrv/include/iprt/crc.h
virtualbox-kernel-4.2.16/vboxdrv/include/iprt/asm-math.h
virtualbox-kernel-4.2.16/vboxdrv/include/iprt/cpuset.h
virtualbox-kernel-4.2.16/vboxdrv/include/iprt/memobj.h
virtualbox-kernel-4.2.16/vboxdrv/include/iprt/asm.h
virtualbox-kernel-4.2.16/vboxdrv/include/iprt/semaphore.h
virtualbox-kernel-4.2.16/vboxdrv/include/iprt/string.h
virtualbox-kernel-4.2.16/vboxdrv/include/iprt/log.h
virtualbox-kernel-4.2.16/vboxdrv/include/iprt/uni.h
virtualbox-kernel-4.2.16/vboxdrv/include/iprt/rand.h
virtualbox-kernel-4.2.16/vboxdrv/include/iprt/types.h
virtualbox-kernel-4.2.16/vboxdrv/include/iprt/x86.h
virtualbox-kernel-4.2.16/vboxdrv/include/iprt/alloc.h
virtualbox-kernel-4.2.16/vboxdrv/include/internal/
virtualbox-kernel-4.2.16/vboxdrv/include/internal/sched.h
virtualbox-kernel-4.2.16/vboxdrv/include/internal/thread.h
virtualbox-kernel-4.2.16/vboxdrv/include/internal/magics.h
virtualbox-kernel-4.2.16/vboxdrv/include/internal/assert.h
virtualbox-kernel-4.2.16/vboxdrv/include/internal/time.h
virtualbox-kernel-4.2.16/vboxdrv/include/internal/process.h
virtualbox-kernel-4.2.16/vboxdrv/include/internal/iprt.h
virtualbox-kernel-4.2.16/vboxdrv/include/internal/initterm.h
virtualbox-kernel-4.2.16/vboxdrv/include/internal/lockvalidator.h
virtualbox-kernel-4.2.16/vboxdrv/include/internal/memobj.h
virtualbox-kernel-4.2.16/vboxdrv/include/internal/string.h
virtualbox-kernel-4.2.16/dkms.conf
virtualbox-kernel-4.2.16/vboxnetflt/
virtualbox-kernel-4.2.16/vboxnetflt/math/
virtualbox-kernel-4.2.16/vboxnetflt/math/gcc/
virtualbox-kernel-4.2.16/vboxnetflt/math/gcc/qdivrem.c
virtualbox-kernel-4.2.16/vboxnetflt/math/gcc/quad.h
virtualbox-kernel-4.2.16/vboxnetflt/math/gcc/udivdi3.c
virtualbox-kernel-4.2.16/vboxnetflt/math/gcc/divdi3.c
virtualbox-kernel-4.2.16/vboxnetflt/math/gcc/umoddi3.c
virtualbox-kernel-4.2.16/vboxnetflt/math/gcc/moddi3.c
virtualbox-kernel-4.2.16/vboxnetflt/SUPR0IdcClientInternal.h
virtualbox-kernel-4.2.16/vboxnetflt/VBoxNetFlt.c
virtualbox-kernel-4.2.16/vboxnetflt/product-generated.h
virtualbox-kernel-4.2.16/vboxnetflt/version-generated.h
virtualbox-kernel-4.2.16/vboxnetflt/SUPDrvIDC.h
virtualbox-kernel-4.2.16/vboxnetflt/SUPR0IdcClient.c
virtualbox-kernel-4.2.16/vboxnetflt/do_Module.symvers
virtualbox-kernel-4.2.16/vboxnetflt/SUPR0IdcClientComponent.c
virtualbox-kernel-4.2.16/vboxnetflt/r0drv/
virtualbox-kernel-4.2.16/vboxnetflt/r0drv/linux/
virtualbox-kernel-4.2.16/vboxnetflt/r0drv/linux/the-linux-kernel.h
virtualbox-kernel-4.2.16/vboxnetflt/linux/
virtualbox-kernel-4.2.16/vboxnetflt/linux/VBoxNetFlt-linux.c
virtualbox-kernel-4.2.16/vboxnetflt/linux/SUPR0IdcClient-linux.c
virtualbox-kernel-4.2.16/vboxnetflt/Makefile
virtualbox-kernel-4.2.16/vboxnetflt/VBoxNetFltInternal.h
virtualbox-kernel-4.2.16/vboxnetflt/include/
virtualbox-kernel-4.2.16/vboxnetflt/include/VBox/
virtualbox-kernel-4.2.16/vboxnetflt/include/VBox/cdefs.h
virtualbox-kernel-4.2.16/vboxnetflt/include/VBox/SUPDrvMangling.h
virtualbox-kernel-4.2.16/vboxnetflt/include/VBox/sup.h
virtualbox-kernel-4.2.16/vboxnetflt/include/VBox/intnet.h
virtualbox-kernel-4.2.16/vboxnetflt/include/VBox/param.h
virtualbox-kernel-4.2.16/vboxnetflt/include/VBox/intnetinline.h
virtualbox-kernel-4.2.16/vboxnetflt/include/VBox/err.h
virtualbox-kernel-4.2.16/vboxnetflt/include/VBox/log.h
virtualbox-kernel-4.2.16/vboxnetflt/include/VBox/vmm/
virtualbox-kernel-4.2.16/vboxnetflt/include/VBox/vmm/pdmnetinline.h
virtualbox-kernel-4.2.16/vboxnetflt/include/VBox/vmm/stam.h
virtualbox-kernel-4.2.16/vboxnetflt/include/VBox/types.h
virtualbox-kernel-4.2.16/vboxnetflt/include/iprt/
virtualbox-kernel-4.2.16/vboxnetflt/include/iprt/stdint.h
virtualbox-kernel-4.2.16/vboxnetflt/include/iprt/cdefs.h
virtualbox-kernel-4.2.16/vboxnetflt/include/iprt/avl.h
virtualbox-kernel-4.2.16/vboxnetflt/include/iprt/thread.h
virtualbox-kernel-4.2.16/vboxnetflt/include/iprt/ctype.h
virtualbox-kernel-4.2.16/vboxnetflt/include/iprt/mangling.h
virtualbox-kernel-4.2.16/vboxnetflt/include/iprt/stdarg.h
virtualbox-kernel-4.2.16/vboxnetflt/include/iprt/uuid.h
virtualbox-kernel-4.2.16/vboxnetflt/include/iprt/assert.h
virtualbox-kernel-4.2.16/vboxnetflt/include/iprt/asm-amd64-x86.h
virtualbox-kernel-4.2.16/vboxnetflt/include/iprt/time.h
virtualbox-kernel-4.2.16/vboxnetflt/include/iprt/timer.h
virtualbox-kernel-4.2.16/vboxnetflt/include/iprt/nocrt/
virtualbox-kernel-4.2.16/vboxnetflt/include/iprt/nocrt/limits.h
virtualbox-kernel-4.2.16/vboxnetflt/include/iprt/power.h
virtualbox-kernel-4.2.16/vboxnetflt/include/iprt/net.h
virtualbox-kernel-4.2.16/vboxnetflt/include/iprt/process.h
virtualbox-kernel-4.2.16/vboxnetflt/include/iprt/param.h
virtualbox-kernel-4.2.16/vboxnetflt/include/iprt/spinlock.h
virtualbox-kernel-4.2.16/vboxnetflt/include/iprt/heap.h
virtualbox-kernel-4.2.16/vboxnetflt/include/iprt/mem.h
virtualbox-kernel-4.2.16/vboxnetflt/include/iprt/mp.h
virtualbox-kernel-4.2.16/vboxnetflt/include/iprt/err.h
virtualbox-kernel-4.2.16/vboxnetflt/include/iprt/initterm.h
virtualbox-kernel-4.2.16/vboxnetflt/include/iprt/alloca.h
virtualbox-kernel-4.2.16/vboxnetflt/include/iprt/asm-math.h
virtualbox-kernel-4.2.16/vboxnetflt/include/iprt/cpuset.h
virtualbox-kernel-4.2.16/vboxnetflt/include/iprt/memobj.h
virtualbox-kernel-4.2.16/vboxnetflt/include/iprt/asm.h
virtualbox-kernel-4.2.16/vboxnetflt/include/iprt/semaphore.h
virtualbox-kernel-4.2.16/vboxnetflt/include/iprt/string.h
virtualbox-kernel-4.2.16/vboxnetflt/include/iprt/log.h
virtualbox-kernel-4.2.16/vboxnetflt/include/iprt/uni.h
virtualbox-kernel-4.2.16/vboxnetflt/include/iprt/types.h
virtualbox-kernel-4.2.16/vboxnetflt/include/iprt/alloc.h
virtualbox-kernel-4.2.16/Makefile
virtualbox-kernel-4.2.16/build_in_tmp
virtualbox-kernel-4.2.16/do_dkms
*** Building 'vboxdrv' module ***
make[1]: Entering directory `/tmp/SBo/virtualbox-kernel-4.2.16/vboxdrv'
make KBUILD_VERBOSE= SUBDIRS=/tmp/SBo/virtualbox-kernel-4.2.16/vboxdrv SRCROOT=/tmp/SBo/virtualbox-kernel-4.2.16/vboxdrv CONFIG_MODULE_SIG= -C /lib/modules/3.2.45-smp/build modules
make[2]: Entering directory `/usr/src/linux-3.2.45'
  CC [M]  /tmp/SBo/virtualbox-kernel-4.2.16/vboxdrv/linux/SUPDrv-linux.o
  CC [M]  /tmp/SBo/virtualbox-kernel-4.2.16/vboxdrv/SUPDrv.o
  CC [M]  /tmp/SBo/virtualbox-kernel-4.2.16/vboxdrv/SUPDrvSem.o
make[3]: *** [/tmp/SBo/virtualbox-kernel-4.2.16/vboxdrv/SUPDrvSem.o] Interrupt
make[2]: *** [_module_/tmp/SBo/virtualbox-kernel-4.2.16/vboxdrv] Interrupt
make[1]: *** [vboxdrv] Interrupt
make: *** [all] Interrupt
